{
  "Product_peripherals" : {
    "firstRow" : 0,
    "isList" : false,
    "package" : "com.eshop.eshopping.Product",
    "startUpdate" : true,
    "type" : "Product",
    "ignoreCase" : false,
    "propertiesMap" : {
      "primaryKeys" : [ "id" ],
      "columns" : [ {
        "precision" : 19,
        "hibernateType" : "integer",
        "isRelated" : false,
        "isPrimaryKey" : true,
        "length" : 255,
        "generator" : "identity",
        "columnName" : "ID",
        "defaultValue" : null,
        "notNull" : true,
        "type" : "integer",
        "fieldName" : "id",
        "fullyQualifiedType" : "integer"
      }, {
        "precision" : 19,
        "hibernateType" : "string",
        "isRelated" : false,
        "isPrimaryKey" : false,
        "length" : 255,
        "generator" : "assigned",
        "columnName" : "IMG_URL",
        "defaultValue" : null,
        "notNull" : false,
        "type" : "string",
        "fieldName" : "imgUrl",
        "fullyQualifiedType" : "string"
      }, {
        "precision" : 19,
        "hibernateType" : "string",
        "isRelated" : false,
        "isPrimaryKey" : false,
        "length" : 255,
        "generator" : "assigned",
        "columnName" : "CATEGORY",
        "defaultValue" : null,
        "notNull" : true,
        "type" : "string",
        "fieldName" : "category",
        "fullyQualifiedType" : "string"
      }, {
        "precision" : 64,
        "hibernateType" : "double",
        "isRelated" : false,
        "isPrimaryKey" : false,
        "length" : 255,
        "generator" : "assigned",
        "columnName" : "PRICE",
        "defaultValue" : null,
        "notNull" : true,
        "type" : "double",
        "fieldName" : "price",
        "fullyQualifiedType" : "double"
      }, {
        "precision" : 19,
        "hibernateType" : "string",
        "isRelated" : false,
        "isPrimaryKey" : false,
        "length" : 255,
        "generator" : "assigned",
        "columnName" : "DESCRIPTION",
        "defaultValue" : null,
        "notNull" : true,
        "type" : "string",
        "fieldName" : "description",
        "fullyQualifiedType" : "string"
      }, {
        "precision" : 19,
        "hibernateType" : "string",
        "isRelated" : false,
        "isPrimaryKey" : false,
        "length" : 255,
        "generator" : "assigned",
        "columnName" : "NAME",
        "defaultValue" : null,
        "notNull" : true,
        "type" : "string",
        "fieldName" : "name",
        "fullyQualifiedType" : "string"
      }, {
        "precision" : 19,
        "hibernateType" : "boolean",
        "isRelated" : false,
        "isPrimaryKey" : false,
        "length" : 255,
        "generator" : "assigned",
        "columnName" : "AVAILABILITY",
        "defaultValue" : null,
        "notNull" : true,
        "type" : "boolean",
        "fieldName" : "availability",
        "fullyQualifiedType" : "boolean"
      } ],
      "tableType" : "TABLE",
      "fullyQualifiedName" : "com.eshop.eshopping.Product",
      "entityName" : "Product"
    },
    "transformationRequired" : false,
    "dataSet" : {
      "dataValue" : ""
    },
    "operation" : "read",
    "saveInPhonegap" : false,
    "_id" : "wm-Product_peripherals-wm.LiveVariable-1449471162380",
    "tableName" : "PRODUCT",
    "name" : "Product_peripherals",
    "designMaxResults" : 6,
    "liveSource" : "eshopping",
    "inFlightBehavior" : "executeLast",
    "maxResults" : 6,
    "matchMode" : "start",
    "category" : "wm.LiveVariable",
    "autoUpdate" : true,
    "dataBinding" : [ {
      "name" : "dataBinding",
      "type" : "PRODUCT",
      "fields" : [ {
        "name" : "id",
        "type" : "number"
      }, {
        "name" : "imgUrl",
        "type" : "string"
      }, {
        "name" : "category",
        "value" : "Peripherals",
        "type" : "string"
      }, {
        "name" : "price",
        "type" : "number"
      }, {
        "name" : "description",
        "type" : "string"
      }, {
        "name" : "name",
        "type" : "string"
      }, {
        "name" : "availability",
        "type" : "boolean"
      } ]
    } ],
    "filterFields" : { },
    "owner" : "Page",
    "tableType" : "TABLE"
  }
}